[gd_scene load_steps=6 format=2]

[ext_resource path="res://MusicBox.gd" type="Script" id=1]
[ext_resource path="res://ChordPlayer.tscn" type="PackedScene" id=2]
[ext_resource path="res://MelodyPlayer.tscn" type="PackedScene" id=3]
[ext_resource path="res://ArpPlayer.tscn" type="PackedScene" id=4]
[ext_resource path="res://DrumPlayer.tscn" type="PackedScene" id=5]

[node name="MusicBox" type="Node"]
script = ExtResource( 1 )
key = 50
beats_to_bar = 8
pattern = [ true, true, false, true, true, false, true, true ]

[node name="ChordPlayer" parent="." instance=ExtResource( 2 )]
instrument = 77
velocity = 80
base_tones = 4
extra_tones = 2

[node name="MelodyPlayer" parent="." instance=ExtResource( 3 )]
velocity = 150
velocity_range = 50
instrument = 10
max_note = 80

[node name="ArpPlayer" parent="." instance=ExtResource( 4 )]
velocity = 100
instrument = 4
note_offset = 12

[node name="DrumPlayer" parent="." instance=ExtResource( 5 )]

[node name="BeatTimer" type="Timer" parent="."]
wait_time = 0.5

[node name="ArpTimer" type="Timer" parent="."]

[connection signal="timeout" from="BeatTimer" to="." method="_on_BeatTimer_timeout"]
[connection signal="timeout" from="ArpTimer" to="." method="_on_ArpTimer_timeout"]
